…
    ## This dataset has 1868 rows and 20 columns.

These data are not tidy, route number and route name should both be
variables.

``` r
#calculate distinct stations
stations=
  nyc_transit |> 
  select(station_name, line) |> 
  distinct()
stations
```

    ## # A tibble: 465 × 2
    ##    station_name             line    
    ##    <chr>                    <chr>   
    ##  1 25th St                  4 Avenue
    ##  2 36th St                  4 Avenue
    ##  3 45th St                  4 Avenue
    ##  4 53rd St                  4 Avenue
    ##  5 59th St                  4 Avenue
    ##  6 77th St                  4 Avenue
    ##  7 86th St                  4 Avenue
    ##  8 95th St                  4 Avenue
    ##  9 9th St                   4 Avenue
    ## 10 Atlantic Av-Barclays Ctr 4 Avenue
    ## # ℹ 455 more rows

``` r
#calculate ADA-compliant stations 
ada_compliant_stat=
  nyc_transit |> 
  filter(ada == TRUE) |> 
  select(station_name, line) |> 
  distinct()
ada_compliant_stat
```

    ## # A tibble: 84 × 2
    ##    station_name                   line           
    ##    <chr>                          <chr>          
    ##  1 Atlantic Av-Barclays Ctr       4 Avenue       
    ##  2 DeKalb Av                      4 Avenue       
    ##  3 Pacific St                     4 Avenue       
    ##  4 Grand Central                  42nd St Shuttle
    ##  5 34th St                        6 Avenue       
    ##  6 47-50th Sts Rockefeller Center 6 Avenue       
    ##  7 Church Av                      6 Avenue       
    ##  8 21st St                        63rd Street    
    ##  9 Lexington Av                   63rd Street    
    ## 10 Roosevelt Island               63rd Street    
    ## # ℹ 74 more rows
…
``` r
nyc_transit_tidy |>
  filter(route_name== "A") |> 
  select(station_name, line) |> 
  distinct()
```

    ## # A tibble: 60 × 2
    ##    station_name                  line           
    ##    <chr>                         <chr>          
    ##  1 Times Square                  42nd St Shuttle
    ##  2 125th St                      8 Avenue       
    ##  3 145th St                      8 Avenue       
    ##  4 14th St                       8 Avenue       
    ##  5 168th St - Washington Heights 8 Avenue       
    ##  6 175th St                      8 Avenue       
    ##  7 181st St                      8 Avenue       
    ##  8 190th St                      8 Avenue       
    ##  9 34th St                       8 Avenue       
    ## 10 42nd St                       8 Avenue       
    ## # ℹ 50 more rows
…
``` r
mr_trash_df = 
  read_excel("./hw2_datasets/202409 Trash Wheel Collection Data.xlsx",
               sheet = "Mr. Trash Wheel",
               range = "A2:N655",
               na = c(".", "NA", "")) |>
  janitor::clean_names() |>
  filter(!is.na(dumpster)) |>
  filter(!if_all(-dumpster, is.na)) |>
  mutate(sports_balls = as.integer(round(sports_balls)))

print(mr_trash_df)
```

    ## # A tibble: 651 × 14
    ##    dumpster month year  date                weight_tons volume_cubic_yards
    ##       <dbl> <chr> <chr> <dttm>                    <dbl>              <dbl>
    ##  1        1 May   2014  2014-05-16 00:00:00        4.31                 18
    ##  2        2 May   2014  2014-05-16 00:00:00        2.74                 13
    ##  3        3 May   2014  2014-05-16 00:00:00        3.45                 15
    ##  4        4 May   2014  2014-05-17 00:00:00        3.1                  15
    ##  5        5 May   2014  2014-05-17 00:00:00        4.06                 18
    ##  6        6 May   2014  2014-05-20 00:00:00        2.71                 13
    ##  7        7 May   2014  2014-05-21 00:00:00        1.91                  8
    ##  8        8 May   2014  2014-05-28 00:00:00        3.7                  16
    ##  9        9 June  2014  2014-06-05 00:00:00        2.52                 14
    ## 10       10 June  2014  2014-06-11 00:00:00        3.76                 18
    ## # ℹ 641 more rows
    ## # ℹ 8 more variables: plastic_bottles <dbl>, polystyrene <dbl>,
    ## #   cigarette_butts <dbl>, glass_bottles <dbl>, plastic_bags <dbl>,
    ## #   wrappers <dbl>, sports_balls <int>, homes_powered <dbl>
…
``` r
prof_trash_df = 
  read_excel("./hw2_datasets/202409 Trash Wheel Collection Data.xlsx",
               sheet = "Professor Trash Wheel",
               range = "A2:M123",
               na = c(".", "NA", "")) |>
  janitor::clean_names() |>
  filter(!is.na(dumpster)) |>
  filter(!if_all(-dumpster, is.na)) 

print(prof_trash_df)
```

    ## # A tibble: 118 × 13
    ##    dumpster month     year date                weight_tons volume_cubic_yards
    ##       <dbl> <chr>    <dbl> <dttm>                    <dbl>              <dbl>
    ##  1        1 January   2017 2017-01-02 00:00:00        1.79                 15
    ##  2        2 January   2017 2017-01-30 00:00:00        1.58                 15
    ##  3        3 February  2017 2017-02-26 00:00:00        2.32                 18
    ##  4        4 February  2017 2017-02-26 00:00:00        3.72                 15
    ##  5        5 February  2017 2017-02-28 00:00:00        1.45                 15
    ##  6        6 March     2017 2017-03-30 00:00:00        1.71                 15
    ##  7        7 April     2017 2017-04-01 00:00:00        1.82                 15
    ##  8        8 April     2017 2017-04-20 00:00:00        2.37                 15
    ##  9        9 May       2017 2017-05-10 00:00:00        2.64                 15
    ## 10       10 May       2017 2017-05-26 00:00:00        2.78                 15
    ## # ℹ 108 more rows
    ## # ℹ 7 more variables: plastic_bottles <dbl>, polystyrene <dbl>,
    ## #   cigarette_butts <dbl>, glass_bottles <dbl>, plastic_bags <dbl>,
    ## #   wrappers <dbl>, homes_powered <dbl>
…
``` r
gwy_trash_df = 
  read_excel("./hw2_datasets/202409 Trash Wheel Collection Data.xlsx",
               sheet = "Gwynnda Trash Wheel",
               range = "A2:L266",
               na = c(".", "NA", "")) |>
  janitor::clean_names() |>
  filter(!is.na(dumpster)) |>
  filter(!if_all(-dumpster, is.na)) 

print(gwy_trash_df)
```

    ## # A tibble: 263 × 12
    ##    dumpster month   year date                weight_tons volume_cubic_yards
    ##       <dbl> <chr>  <dbl> <dttm>                    <dbl>              <dbl>
    ##  1        1 July    2021 2021-07-03 00:00:00        0.93                 15
    ##  2        2 July    2021 2021-07-07 00:00:00        2.26                 15
    ##  3        3 July    2021 2021-07-07 00:00:00        1.62                 15
    ##  4        4 July    2021 2021-07-16 00:00:00        1.76                 15
    ##  5        5 July    2021 2021-07-30 00:00:00        1.53                 15
    ##  6        6 August  2021 2021-08-11 00:00:00        2.06                 15
    ##  7        7 August  2021 2021-08-14 00:00:00        1.9                  15
    ##  8        8 August  2021 2021-08-16 00:00:00        2.16                 15
    ##  9        9 August  2021 2021-08-16 00:00:00        2.6                  15
    ## 10       10 August  2021 2021-08-17 00:00:00        3.21                 15
    ## # ℹ 253 more rows
    ## # ℹ 6 more variables: plastic_bottles <dbl>, polystyrene <dbl>,
    ## #   cigarette_butts <dbl>, plastic_bags <dbl>, wrappers <dbl>,
    ## #   homes_powered <dbl>
…
gwy_trash_df <- gwy_trash_df |>
  mutate(type = "gwy") |>
  relocate(type) |>
  select(-dumpster) |>
  mutate(year = as.character(year))

merged_df = 
  bind_rows(mr_trash_df, prof_trash_df, gwy_trash_df)
print(merged_df)
```

    ## # A tibble: 1,032 × 14
    ##    type  month year  date                weight_tons volume_cubic_yards
    ##    <chr> <chr> <chr> <dttm>                    <dbl>              <dbl>
    ##  1 mr    May   2014  2014-05-16 00:00:00        4.31                 18
    ##  2 mr    May   2014  2014-05-16 00:00:00        2.74                 13
    ##  3 mr    May   2014  2014-05-16 00:00:00        3.45                 15
    ##  4 mr    May   2014  2014-05-17 00:00:00        3.1                  15
    ##  5 mr    May   2014  2014-05-17 00:00:00        4.06                 18
    ##  6 mr    May   2014  2014-05-20 00:00:00        2.71                 13
    ##  7 mr    May   2014  2014-05-21 00:00:00        1.91                  8
    ##  8 mr    May   2014  2014-05-28 00:00:00        3.7                  16
    ##  9 mr    June  2014  2014-06-05 00:00:00        2.52                 14
    ## 10 mr    June  2014  2014-06-11 00:00:00        3.76                 18
    ## # ℹ 1,022 more rows
    ## # ℹ 8 more variables: plastic_bottles <dbl>, polystyrene <dbl>,
    ## #   cigarette_butts <dbl>, glass_bottles <dbl>, plastic_bags <dbl>,
    ## #   wrappers <dbl>, sports_balls <int>, homes_powered <dbl>
…
    ## Rows: 548 Columns: 5
    ## ── Column specification ────────────────────────────────────────────────────────
    ## Delimiter: ","
    ## chr (3): Baker, Signature Bake, Show Stopper
    ## dbl (2): Series, Episode
    ## 
    ## ℹ Use `spec()` to retrieve the full column specification for this data.
    ## ℹ Specify the column types or set `show_col_types = FALSE` to quiet this message.

``` r
print(bakes_df)
```

    ## # A tibble: 548 × 5
    ##    series episode baker     signature_bake                          show_stopper
    ##     <dbl>   <dbl> <chr>     <chr>                                   <chr>       
    ##  1      1       1 Annetha   "Light Jamaican Black Cakewith Strawbe… Red, White …
    ##  2      1       1 David     "Chocolate Orange Cake"                 Black Fores…
    ##  3      1       1 Edd       "Caramel Cinnamon and Banana Cake"      <NA>        
    ##  4      1       1 Jasminder "Fresh Mango and Passion Fruit Humming… <NA>        
    ##  5      1       1 Jonathan  "Carrot Cake with Lime and Cream Chees… Three Tiere…
    ##  6      1       1 Lea       "Cranberry and Pistachio Cakewith Oran… Raspberries…
    ##  7      1       1 Louise    "Carrot and Orange Cake"                Never Fail …
    ##  8      1       1 Mark      "Sticky Marmalade Tea Loaf"             Heart-shape…
    ##  9      1       1 Miranda   "Triple Layered Brownie Meringue Cake\… Three Tiere…
    ## 10      1       1 Ruth      "Three Tiered Lemon Drizzle Cakewith F… Classic Cho…
    ## # ℹ 538 more rows
…
    ## Rows: 120 Columns: 5
    ## ── Column specification ────────────────────────────────────────────────────────
    ## Delimiter: ","
    ## chr (3): Baker Name, Baker Occupation, Hometown
    ## dbl (2): Series, Baker Age
    ## 
    ## ℹ Use `spec()` to retrieve the full column specification for this data.
    ## ℹ Specify the column types or set `show_col_types = FALSE` to quiet this message.

``` r
print(bakers_df)
```

    ## # A tibble: 120 × 5
    ##    baker_name       series baker_age baker_occupation             hometown      
    ##    <chr>             <dbl>     <dbl> <chr>                        <chr>         
    ##  1 Ali Imdad             4        25 Charity worker               Saltley, Birm…
    ##  2 Alice Fevronia       10        28 Geography teacher            Essex         
    ##  3 Alvin Magallanes      6        37 Nurse                        Bracknell, Be…
    ##  4 Amelia LeBruin       10        24 Fashion designer             Halifax       
    ##  5 Andrew Smyth          7        25 Aerospace engineer           Derby / Holyw…
    ##  6 Annetha Mills         1        30 Midwife                      Essex         
    ##  7 Antony Amourdoux      9        30 Banker                       London        
    ##  8 Beca Lyne-Pirkis      4        31 Military Wives' Choir Singer Aldershot, Ha…
    ##  9 Ben Frazer            2        31 Graphic Designer             Northampton   
    ## 10 Benjamina Ebuehi      7        23 Teaching assistant           South London  
    ## # ℹ 110 more rows
…
    ## Rows: 1136 Columns: 5
    ## ── Column specification ────────────────────────────────────────────────────────
    ## Delimiter: ","
    ## chr (2): baker, result
    ## dbl (3): series, episode, technical
    ## 
    ## ℹ Use `spec()` to retrieve the full column specification for this data.
    ## ℹ Specify the column types or set `show_col_types = FALSE` to quiet this message.

``` r
print(results_df)
```

    ## # A tibble: 1,136 × 5
    ##    series episode baker     technical result
    ##     <dbl>   <dbl> <chr>         <dbl> <chr> 
    ##  1      1       1 Annetha           2 IN    
    ##  2      1       1 David             3 IN    
    ##  3      1       1 Edd               1 IN    
    ##  4      1       1 Jasminder        NA IN    
    ##  5      1       1 Jonathan          9 IN    
    ##  6      1       1 Louise           NA IN    
    ##  7      1       1 Miranda           8 IN    
    ##  8      1       1 Ruth             NA IN    
    ##  9      1       1 Lea              10 OUT   
    ## 10      1       1 Mark             NA OUT   
    ## # ℹ 1,126 more rows

Aftering importing and viewing each datasets, then we had better check
for completeness and correctness across datasets by using anti_join().

``` r
anti_join(bakers_df,bakes_df, by=c('series'))
```

    ## # A tibble: 25 × 5
    ##    baker_name          series baker_age baker_occupation               hometown 
    ##    <chr>                <dbl>     <dbl> <chr>                          <chr>    
    ##  1 Alice Fevronia          10        28 Geography teacher              Essex    
    ##  2 Amelia LeBruin          10        24 Fashion designer               Halifax  
    ##  3 Antony Amourdoux         9        30 Banker                         London   
    ##  4 Briony Williams          9        33 Full-time parent               Bristol  
    ##  5 Dan Beasley-Harling      9        36 Full-time parent               London   
    ##  6 Dan Chambers            10        32 Support worker                 Rotherham
    ##  7 David Atherton          10        36 International health adviser   Whitby   
    ##  8 Helena Garcia           10        40 Online project manager         Leeds    
    ##  9 Henry Bird              10        20 Student                        Durham   
    ## 10 Imelda McCarron          9        33 Countryside recreation officer County T…
    ## # ℹ 15 more rows

``` r
anti_join(bakes_df,bakers_df, by=c('series'))
```

    ## # A tibble: 0 × 5
    ## # ℹ 5 variables: series <dbl>, episode <dbl>, baker <chr>,
    ## #   signature_bake <chr>, show_stopper <chr>

``` r
anti_join(results_df,bakes_df, by=c('series','baker','episode'))
```

    ## # A tibble: 596 × 5
    ##    series episode baker    technical result
    ##     <dbl>   <dbl> <chr>        <dbl> <chr> 
    ##  1      1       2 Lea             NA <NA>  
    ##  2      1       2 Mark            NA <NA>  
    ##  3      1       3 Annetha         NA <NA>  
    ##  4      1       3 Lea             NA <NA>  
    ##  5      1       3 Louise          NA <NA>  
    ##  6      1       3 Mark            NA <NA>  
    ##  7      1       4 Annetha         NA <NA>  
    ##  8      1       4 Jonathan        NA <NA>  
    ##  9      1       4 Lea             NA <NA>  
    ## 10      1       4 Louise          NA <NA>  
    ## # ℹ 586 more rows
…
``` r
combined_df=
  left_join(results_df, bakes_df, by=c('baker','series','episode')) |>
  relocate('baker','series','episode')

combined_df=
  left_join(combined_df, bakers_df, by=c('baker','series')) |>
  select(baker,series, episode, technical, signature_bake, show_stopper, result, everything())

print(combined_df)
```

    ## # A tibble: 1,136 × 11
    ##    baker  series episode technical signature_bake show_stopper result baker_name
    ##    <chr>   <dbl>   <dbl>     <dbl> <chr>          <chr>        <chr>  <chr>     
    ##  1 Annet…      1       1         2 "Light Jamaic… Red, White … IN     Annetha M…
    ##  2 David       1       1         3 "Chocolate Or… Black Fores… IN     David Cha…
    ##  3 Edd         1       1         1 "Caramel Cinn… <NA>         IN     Edd Kimber
    ##  4 Jasmi…      1       1        NA "Fresh Mango … <NA>         IN     Jasminder…
    ##  5 Jonat…      1       1         9 "Carrot Cake … Three Tiere… IN     Jonathan …
    ##  6 Louise      1       1        NA "Carrot and O… Never Fail … IN     Louise Br…
    ##  7 Miran…      1       1         8 "Triple Layer… Three Tiere… IN     Miranda B…
    ##  8 Ruth        1       1        NA "Three Tiered… Classic Cho… IN     Ruth Clem…
    ##  9 Lea         1       1        10 "Cranberry an… Raspberries… OUT    Lea Harris
    ## 10 Mark        1       1        NA "Sticky Marma… Heart-shape… OUT    Mark Whit…
    ## # ℹ 1,126 more rows
    ## # ℹ 3 more variables: baker_age <dbl>, baker_occupation <chr>, hometown <chr>
…
Create a reader-friendly table showing the star baker or winner of each
episode in Seasons 5 through 10.

``` r
filtered_df <- combined_df |>
  filter(series >= 5 & series <= 10, result %in% c("WINNER", "STAR BAKER")) |>
  select(baker_name, series, episode, result)
print(filtered_df)
```

    ## # A tibble: 60 × 4
    ##    baker_name        series episode result    
    ##    <chr>              <dbl>   <dbl> <chr>     
    ##  1 Nancy Birtwhistle      5       1 STAR BAKER
    ##  2 Richard Burr           5       2 STAR BAKER
    ##  3 Luis Troyano           5       3 STAR BAKER
    ##  4 Richard Burr           5       4 STAR BAKER
    ##  5 Kate Henry             5       5 STAR BAKER
    ##  6 Chetna Makan           5       6 STAR BAKER
    ##  7 Richard Burr           5       7 STAR BAKER
    ##  8 Richard Burr           5       8 STAR BAKER
    ##  9 Richard Burr           5       9 STAR BAKER
    ## 10 Nancy Birtwhistle      5      10 WINNER    
    ## # ℹ 50 more rows
…
